Statistical Models
…
Three variables: Outcome: Hand-Grip Strength (HGS, continuous); Predictors: Sex (categorical), F0 (continuous)

Han, C., Wang, H., Fasolt, V., Hahn, A. C., Holzleitner, I. J., Lao, J., DeBruine, L. M., Feinberg, D. R., & Jones, B. C. (2018). No evidence for correlations between handgrip strength and sexually dimorphic acoustic properties of voices.. American Journal of Human Biology, 30, e23178.

Data: https://osf.io/na6be/

The Data

hgs <- readxl::read_excel("../data/Han_et_al.xlsx") |>
  mutate(ID = as.integer(ID)) |>
  select(ID, sex, HGS, F0)

hgs

# A tibble: 221 × 4
      ID sex     HGS    F0
   <int> <chr> <dbl> <dbl>
 1     4 male   45.5 115. 
 2     7 male   31   147. 
 3     8 male   40   123. 
 4    19 male   37   120. 
 5    21 male   45    94.7
 6    22 male   50    98.8
 7    30 male   31    94.7
 8    31 male   47.5 124. 
 9    35 male   34    92.6
10    36 male   30   111. 
# ℹ 211 more rows
…
