Statistical Models
…
rt

rep() says to copy the word “parent” for the number of parent values there are (length(parents)), and then do the same for control

ANOVA approach

dat <- tibble(
  group = rep(c("parent", "control"), 
              c(length(parents), length(control))),
  rt = c(parents, control))

dat

# A tibble: 100 × 2
   group     rt
   <chr>  <dbl>
 1 parent  372.
 2 parent  441.
 3 parent  432.
 4 parent  500.
 5 parent  494.
 6 parent  560.
 7 parent  478.
 8 parent  438.
 9 parent  420.
10 parent  474.
# ℹ 90 more rows
…
